              ssssssss    ssss     ssss      sssss      sssssssss   ssssssssssss  sssssssss      ssssssss      sssssssss   ssssssssssss    sssss      ss                             
            ssssssssss   ssss     ssss      sssss      ssssssssss  ssssssssssss  ssssssssss    ssssssssss     ssssssssss  ssssssssssss    sssss      ss                             
            ssss sssss   sssss   sssss      sssss      ss    ssss       ss       ss    ssss   ssssssssssss    ss    ssss       ss         sssss      ss                             
            sss    sss   sssss   sssss     sssssss     ss     sss       ss       ss     sss  ssss      ssss   ss     sss       ss        sssssss     ss                             
            sss          sssss   sssss     sss sss     ss     sss       ss       ss      ss  sss        sss   ss     sss       ss        sss sss     ss                             
            ssss         sssss   sssss     sss sss     ss    ssss       ss       ss     sss  sss        sss   ss    ssss       ss        sss sss     ss                             
            ssssssss     ss sss sss ss    ssss  sss    ssssssssss       ss       ss    ssss  sss        sss   ssssssssss       ss       ssss  sss    ss                             
              sssssss    ss sss sss ss    sss   sss    sssssssss        ss       ssssssssss  ss          ss   sssssssss        ss       sss   sss    ss                             
                ssssss   ss sss sss ss    sss   sss    ss  ssss         ss       sssssssss   sss        sss   ss  ssss         ss       sss   sss    ss                             
                   sss   ss sss sss ss   sssssssssss   ss   ssss        ss       ss          sss        sss   ss   ssss        ss      sssssssssss   ss                             
           sss      ss   ss  sssss  ss   sssssssssss   ss    sss        ss       ss          sss        sss   ss    sss        ss      sssssssssss   ss                             
           sss     sss   ss  sssss  ss   sss     sss   ss    ssss       ss       ss          ssss      ssss   ss    ssss       ss      sss     sss   ss                             
           sssss sssss   ss  sssss  ss  sss       sss  ss     sss       ss       ss           ssssssssssss    ss     sss       ss     sss       sss  ss                             
            ssssssssss   ss  sssss  ss  sss       sss  ss     ssss      ss       ss            ssssssssss     ss     ssss      ss     sss       sss  ssssssss                       
             ssssssss    ss   sss   ss ssss       ssss ss      sss      ss       ss             ssssssss      ss      sss      ss    ssss       ssss ssssssss                       


${AnsiColor.BRIGHT_BLUE}::  Smartportal:: Running Spring Boot ${spring-boot.version} ::

